המדריך העברי למשתמש ב-R - 3 הכנת נתונים
…
כל שורה היא תצפית - לא מתקיים בכלל. יש שורות ריקות (כמו שורה 5), ויש שורות שאינן תצפית אלא מתארות תכונות של מקבץ תצפיות (כגון שורה 6 ושורה 14).

כל תא הוא ערך של משתנה עבור תצפית מסוימת - לא מתקיים. ראו סעיף קודם - מדובר בתאים שמכילים ערכים שמתארים מקבץ תצפיות.

כמו כן, יש עוד כל מיני חריגות לא ברורות בקובץ כגון תאים שמודגשים במסגרת גבול שחורה (מבלי שברור מה המסגרת אומרת), יש תאים שמכילים שתי נקודות (לא ברור מה זה, האם ערך חסר?), שמות המשתנים לעיתים מפוצלים על פני שתי שורות (כמו לדוגמה “ערב פסח” בעמודה F), ועוד בעיות.

בסיכומו של עניין - אילו היינו רוצים לקלוט קובץ כזה לתוך R על מנת לחלץ את המספרים שבו, היינו צריכים להתאמץ רבות על מנת להפוך את הקובץ למסודר. באופן כללי, ניתן לומר שקבצי אקסל הם מתכון לאסון כי הם מעודדים את המשתמשים לבנות קבצים לא-מסודרים על ידי ביצוע פעולות כמו מיזוג תאים, צביעה של תאים (שזה אינדיקציה לקידוד מידע כלשהו, אבל קידוד שקשה להבין אותו ב”שפת הנתונים”), ועוד שאר בעיות שאין זה המקום לתאר.

3.1.2 דוגמה לדאטה מסודר

הנה דוגמה לדאטה מסודר מתוך חבילת palmerpenguins. חבילה זו מכילה נתונים של שלושה זנים של פינגוינים, ואנחנו עוד נשתמש בה בהמשך הספר. לכרגע רק נראה איך נראות עשרת השורות הראשונות בטבלת הנתונים (הסבר על הקוד והתוצר שרואים מצורף מטה):

palmerpenguins::penguins

# A tibble: 344 × 8
   species island    bill_length_mm bill_depth_mm flipper_length_mm body_mass_g
   <fct>   <fct>              <dbl>         <dbl>             <int>       <int>
 1 Adelie  Torgersen           39.1          18.7               181        3750
 2 Adelie  Torgersen           39.5          17.4               186        3800
 3 Adelie  Torgersen           40.3          18                 195        3250
 4 Adelie  Torgersen           NA            NA                  NA          NA
 5 Adelie  Torgersen           36.7          19.3               193        3450
 6 Adelie  Torgersen           39.3          20.6               190        3650
 7 Adelie  Torgersen           38.9          17.8               181        3625
 8 Adelie  Torgersen           39.2          19.6               195        4675
 9 Adelie  Torgersen           34.1          18.1               193        3475
10 Adelie  Torgersen           42            20.2               190        4250
# ℹ 334 more rows
# ℹ 2 more variables: sex <fct>, year <int>
…
penguins

# A tibble: 344 × 8
   species island    bill_length_mm bill_depth_mm flipper_length_mm body_mass_g
   <chr>   <chr>              <dbl>         <dbl>             <dbl>       <dbl>
 1 Adelie  Torgersen           39.1          18.7               181        3750
 2 Adelie  Torgersen           39.5          17.4               186        3800
 3 Adelie  Torgersen           40.3          18                 195        3250
 4 Adelie  Torgersen           NA            NA                  NA          NA
 5 Adelie  Torgersen           36.7          19.3               193        3450
 6 Adelie  Torgersen           39.3          20.6               190        3650
 7 Adelie  Torgersen           38.9          17.8               181        3625
 8 Adelie  Torgersen           39.2          19.6               195        4675
 9 Adelie  Torgersen           34.1          18.1               193        3475
10 Adelie  Torgersen           42            20.2               190        4250
# ℹ 334 more rows
# ℹ 2 more variables: sex <chr>, year <dbl>
…
באמצעות mutate על ידי רשימת הטרנספורמציה ישירות על המשתנה;

באמצעות mutate על ידי שימוש בפונקציות בחירה (לדוגמה ends_with("_g"), ביחד עם across).

3.6 פעולות על שורות (סינון)

פעולה נפוצה בניתוח נתונים היא סינון של הנתונים לפי קריטריונים מסוימים. הפקודה שמסייעת לנו בסינון נקראת filter, ואפשר להגדיר באמצעותה קריטריונים או שילוב של קריטריונים שונים.

לדוגמה, הקוד הבא יסנן מתוך הדאטה רק פינגויינים שחיים באי Dream:

penguins %>% 
  filter(island == "Dream")

# A tibble: 124 × 8
   species island bill_length_mm bill_depth_mm flipper_length_mm body_mass_g
   <chr>   <chr>           <dbl>         <dbl>             <dbl>       <dbl>
 1 Adelie  Dream            39.5          16.7               178        3250
 2 Adelie  Dream            37.2          18.1               178        3900
 3 Adelie  Dream            39.5          17.8               188        3300
 4 Adelie  Dream            40.9          18.9               184        3900
 5 Adelie  Dream            36.4          17                 195        3325
 6 Adelie  Dream            39.2          21.1               196        4150
 7 Adelie  Dream            38.8          20                 190        3950
 8 Adelie  Dream            42.2          18.5               180        3550
 9 Adelie  Dream            37.6          19.3               181        3300
10 Adelie  Dream            39.8          19.1               184        4650
# ℹ 114 more rows
# ℹ 2 more variables: sex <chr>, year <dbl>

דוגמה נוספת לחיתוך מורכב יותר היא להחזיר את כל הפינגויינים ממין זכר או מין לא ידוע שחיים באי Dream:

penguins %>% 
  filter(!is.na(sex) | sex == "male") %>% 
  filter(island == "Dream")

# A tibble: 123 × 8
   species island bill_length_mm bill_depth_mm flipper_length_mm body_mass_g
   <chr>   <chr>           <dbl>         <dbl>             <dbl>       <dbl>
 1 Adelie  Dream            39.5          16.7               178        3250
 2 Adelie  Dream            37.2          18.1               178        3900
 3 Adelie  Dream            39.5          17.8               188        3300
 4 Adelie  Dream            40.9          18.9               184        3900
 5 Adelie  Dream            36.4          17                 195        3325
 6 Adelie  Dream            39.2          21.1               196        4150
 7 Adelie  Dream            38.8          20                 190        3950
 8 Adelie  Dream            42.2          18.5               180        3550
 9 Adelie  Dream            37.6          19.3               181        3300
10 Adelie  Dream            39.8          19.1               184        4650
# ℹ 113 more rows
# ℹ 2 more variables: sex <chr>, year <dbl>
…
