המדריך העברי למשתמש ב-R - 8 מודלים מונחים
…
Computational engine: ranger 

כעת נגדיר את רשת החיפוש (Search grid). המונח רשת מבטא את העובדה שישנם מספר היפר-פרמטרים וההצלבה ביניהם מייצרת מעין “רשת” שבה מתבצע החיפוש.

penguin_grid <- grid_regular(mtry(range = c(1, 5)), 
                             trees(), 
                             min_n(),
                             levels = 3)

penguin_grid

# A tibble: 27 × 3
    mtry trees min_n
   <int> <int> <int>
 1     1     1     2
 2     3     1     2
 3     5     1     2
 4     1  1000     2
 5     3  1000     2
 6     5  1000     2
 7     1  2000     2
 8     3  2000     2
 9     5  2000     2
10     1     1    21
# ℹ 17 more rows
…
כעת ניתן לנתח את רמת הדיוק כפונקציה של ערכי ההיפר-פרמטרים:

penguin_forest_metrics <- penguin_forest_tune_res %>% 
  collect_metrics() %>% 
  mutate(mtry = glue::glue("mtry={mtry}")) %>% 
  mutate(across(c(mtry, min_n), as.factor))

penguin_forest_metrics

# A tibble: 54 × 9
   mtry   trees min_n .metric  .estimator  mean     n std_err .config           
   <fct>  <int> <fct> <chr>    <chr>      <dbl> <int>   <dbl> <chr>             
 1 mtry=1     1 2     accuracy binary     0.594     5  0.0495 Preprocessor1_Mod…
 2 mtry=1     1 2     roc_auc  binary     0.613     5  0.0601 Preprocessor1_Mod…
 3 mtry=3     1 2     accuracy binary     0.718     5  0.0581 Preprocessor1_Mod…
 4 mtry=3     1 2     roc_auc  binary     0.735     5  0.0506 Preprocessor1_Mod…
 5 mtry=5     1 2     accuracy binary     0.749     5  0.0764 Preprocessor1_Mod…
 6 mtry=5     1 2     roc_auc  binary     0.762     5  0.0717 Preprocessor1_Mod…
 7 mtry=1  1000 2     accuracy binary     0.845     5  0.0384 Preprocessor1_Mod…
 8 mtry=1  1000 2     roc_auc  binary     0.904     5  0.0459 Preprocessor1_Mod…
 9 mtry=3  1000 2     accuracy binary     0.847     5  0.0377 Preprocessor1_Mod…
10 mtry=3  1000 2     roc_auc  binary     0.918     5  0.0432 Preprocessor1_Mod…
# ℹ 44 more rows
…
